Django==1.6.1
amqplib==1.0.2
celery==3.1.7
django-evolution==0.6.9
django-keyedcache==1.4-6
django-model-utils==2.0
django-picklefield==0.3.1
django-piston==0.2.3
django_extensions==1.3.2
django-registration==1.0
django-celery==3.1.1
python-dateutil==1.5
networkx==1.8.1
netifaces==0.8 
jinja2==2.7.2
tornado==3.1.1 
pygraphviz==1.2
librabbitmq==1.0.3
six==1.5.2
ipaddr==2.1.10
MySQL-python==1.2.5
