INFO: compiling with CoAP-13
mkdir obj_native
  CC        ../../core/net/rime/rimeaddr.c
  CC        ../../core/net/rime/timesynch.c
  CC        ../../core/net/rime/rimestats.c
  CC        ../../core/net/mac/cxmac.c
  CC        ../../core/net/mac/xmac.c
  CC        ../../core/net/mac/nullmac.c
  CC        ../../core/net/mac/lpp.c
  CC        ../../core/net/mac/frame802154.c
  CC        ../../core/net/mac/sicslowmac.c
  CC        ../../core/net/mac/nullrdc.c
  CC        ../../core/net/mac/nullrdc-noframer.c
  CC        ../../core/net/mac/mac.c
  CC        ../../core/net/mac/framer-nullmac.c
  CC        ../../core/net/mac/framer-802154.c
  CC        ../../core/net/mac/csma.c
  CC        ../../core/net/mac/contikimac.c
  CC        ../../core/net/mac/phase.c
  CC        ../../core/net/rpl/rpl.c
  CC        ../../core/net/rpl/rpl-dag.c
  CC        ../../core/net/rpl/rpl-icmp6.c
  CC        ../../core/net/rpl/rpl-timers.c
  CC        ../../core/net/rpl/rpl-mrhof.c
  CC        ../../core/net/rpl/rpl-ext-header.c
  CC        ../../core/sys/process.c
  CC        ../../core/sys/procinit.c
  CC        ../../core/sys/autostart.c
  CC        ../../core/loader/elfloader.c
  CC        ../../core/sys/profile.c
  CC        ../../core/sys/timetable.c
  CC        ../../core/sys/timetable-aggregate.c
  CC        ../../core/sys/compower.c
  CC        ../../core/dev/serial-line.c
  CC        ../../core/lib/memb.c
  CC        ../../core/lib/mmem.c
  CC        ../../core/sys/timer.c
  CC        ../../core/lib/list.c
  CC        ../../core/sys/etimer.c
  CC        ../../core/sys/ctimer.c
  CC        ../../core/sys/energest.c
  CC        ../../core/sys/rtimer.c
  CC        ../../core/sys/stimer.c
  CC        ../../core/lib/trickle-timer.c
  CC        ../../core/lib/print-stats.c
  CC        ../../core/lib/ifft.c
  CC        ../../core/lib/crc16.c
  CC        ../../core/lib/random.c
  CC        ../../core/lib/checkpoint.c
  CC        ../../core/lib/ringbuf.c
  CC        ../../core/lib/settings.c
  CC        ../../core/net/dhcpc.c
  CC        ../../core/net/hc.c
  CC        ../../core/net/nbr-table.c
  CC        ../../core/net/netstack.c
  CC        ../../core/net/packetbuf.c
  CC        ../../core/net/packetqueue.c
  CC        ../../core/net/psock.c
  CC        ../../core/net/queuebuf.c
  CC        ../../core/net/resolv.c
  CC        ../../core/net/sicslowpan.c
  CC        ../../core/net/simple-udp.c
  CC        ../../core/net/tcpdump.c
  CC        ../../core/net/tcpip.c
  CC        ../../core/net/uaodv-rt.c
  CC        ../../core/net/uaodv.c
  CC        ../../core/net/uip-debug.c
  CC        ../../core/net/uip-ds6-route.c
  CC        ../../core/net/uip-ds6-nbr.c
  CC        ../../core/net/uip-ds6.c
  CC        ../../core/net/uip-fw-drv.c
  CC        ../../core/net/uip-fw.c
  CC        ../../core/net/uip-icmp6.c
  CC        ../../core/net/uip-nd6.c
  CC        ../../core/net/uip-neighbor.c
  CC        ../../core/net/uip-over-mesh.c
  CC        ../../core/net/uip-packetqueue.c
  CC        ../../core/net/uip-split.c
  CC        ../../core/net/uip-udp-packet.c
  CC        ../../core/net/uip.c
  CC        ../../core/net/uip6.c
  CC        ../../core/net/uip_arp.c
  CC        ../../core/net/uiplib.c
  CC        ../../core/sys/mt.c
  CC        ../../core/dev/nullradio.c
  CC        ../../apps/er-coap-13/er-coap-13.c
  CC        ../../apps/er-coap-13/er-coap-13-engine.c
  CC        ../../apps/er-coap-13/er-coap-13-transactions.c
  CC        ../../apps/er-coap-13/er-coap-13-observing.c
  CC        ../../apps/er-coap-13/er-coap-13-separate.c
  CC        ../../apps/er-coap-13/er-coap-13-observing-client.c
  CC        ../../apps/erbium/erbium.c
  CC        ../../apps/exip/src/common/src/ASCII_stringManipulate.c
  CC        ../../apps/exip/src/common/src/contentHandler.c
  CC        ../../apps/exip/src/common/src/dynamicArray.c
  CC        ../../apps/exip/src/common/src/hashtable.c
  CC        ../../apps/exip/src/common/src/memManagement.c
  CC        ../../apps/exip/src/common/src/procTypes.c
  CC        ../../apps/exip/src/contentIO/src/bodyDecode.c
  CC        ../../apps/exip/src/contentIO/src/bodyEncode.c
  CC        ../../apps/exip/src/contentIO/src/EXIParser.c
  CC        ../../apps/exip/src/contentIO/src/EXISerializer.c
  CC        ../../apps/exip/src/contentIO/src/headerDecode.c
  CC        ../../apps/exip/src/contentIO/src/headerEncode.c
  CC        ../../apps/exip/src/contentIO/src/initSchemaInstance.c
  CC        ../../apps/exip/src/contentIO/src/staticEXIOptions.c
  CC        ../../apps/exip/src/grammar/src/grammars.c
  CC        ../../apps/exip/src/streamIO/src/ioUtil.c
  CC        ../../apps/exip/src/streamIO/src/streamDecode.c
  CC        ../../apps/exip/src/streamIO/src/streamEncode.c
  CC        ../../apps/exip/src/streamIO/src/streamRead.c
  CC        ../../apps/exip/src/streamIO/src/streamWrite.c
  CC        ../../apps/exip/src/stringTables/src/sTables.c
  CC        ../../apps/exip/ICSI/encoding/m2mEncode.c
  CC        ../../apps/exip/ICSI/encoding/ICSIutils.c
  CC        ../../apps/exip/ICSI/encoding/m2mBuild.c
  CC        ../../apps/exip/ICSI/encoding/parsingUtils.c
  CC        ../../apps/exip/ICSI/decoding/exiDecode.c
  CC        ../../apps/exip/build/gcc/contiki/d_mem.c
  CC        ../../apps/json/jsonparse.c
  CC        ../../apps/json/jsontree.c
  CC        ../../core/ctk/ctk.c
  CC        ../../core/ctk/ctk-conio.c
  CC        ../../platform/native/./contiki-main.c
  CC        ../../platform/native/./clock.c
  CC        ../../core/dev/leds.c
  CC        ../../platform/native/dev/leds-arch.c
  CC        ../../platform/native/dev/button-sensor.c
  CC        ../../platform/native/dev/pir-sensor.c
  CC        ../../platform/native/dev/vib-sensor.c
  CC        ../../platform/native/dev/xmem.c
  CC        ../../core/lib/sensors.c
  CC        ../../platform/native/dev/irq.c
  CC        ../../core/cfs/cfs-posix.c
  CC        ../../core/cfs/cfs-posix-dir.c
  CC        ../../platform/native/ctk/ctk-curses.c
  CC        ../../cpu/native/net/tapdev-drv.c
  CC        ../../cpu/native/net/tapdev6.c
  CC        ../../cpu/native/./mtarch.c
  CC        ../../cpu/native/./rtimer-arch.c
  CC        ../../core/loader/elfloader-stub.c
  CC        ../../cpu/native/./watchdog.c
  CC        ../../cpu/native/dev/eeprom.c
  CC        symbols.c
  AR        contiki-native.a
  CC        er-m2m-server.c
  LD        er-m2m-server.native
rm er-m2m-server.co
